{
  "backgroundName" : "Space",
  "hasReverseGravity" : true,
  "stickers" : [
    {
      "birthday" : -1703520000,
      "imageName" : "cat",
      "name" : "David Meowie",
      "normalizedPosition" : [
        0.29999999999999999,
        0.5
      ]
    },
    {
      "birthday" : -31593600,
      "imageName" : "rocketmouse",
      "name" : "Samouse",
      "normalizedPosition" : [
        0.69999999999999996,
        0.5
      ]
    }
  ],
  "width" : 900
}